<?xml version="1.0" encoding="utf-8"?>
<!-- Generator: Adobe Illustrator 23.0.3, SVG Export Plug-In . SVG Version: 6.00 Build 0)  -->
<svg version="1.1" id="Layer_1" xmlns="http://www.w3.org/2000/svg" xmlns:xlink="http://www.w3.org/1999/xlink" x="0px" y="0px"
	 viewBox="0 0 267.6 112.5" style="enable-background:new 0 0 267.6 112.5;" xml:space="preserve">
<style type="text/css">
	.st0{fill:#D0D2D3;}
	.st1{fill:#231F20;}
	.st2{font-family:'MyriadPro-Semibold';}
	.st3{font-size:13.6412px;}
	.st4{font-family:'Gotham-Book';}
	.st5{font-size:7.4399px;}
	.st6{letter-spacing:2;}
</style>
<path class="st0" d="M0,18.8C0,18.8,31.6,31,92.7,31c67,0,119.1-8.9,174.9-31v112.5H0V18.8z"/>
<text transform="matrix(1 0 0 1 121.4144 67.4907)" class="st1 st2 st3">total  engraving</text>
<text transform="matrix(1 0 0 1 134.2484 76.3305)" class="st1 st4 st5 st6">TWO STEPS IN FRONT</text>
</svg>
