<?xml version="1.0" encoding="utf-8"?>
<!-- Generator: Adobe Illustrator 23.0.3, SVG Export Plug-In . SVG Version: 6.00 Build 0)  -->
<svg version="1.1" id="Layer_1" xmlns="http://www.w3.org/2000/svg" xmlns:xlink="http://www.w3.org/1999/xlink" x="0px" y="0px"
	 viewBox="0 0 95 85.8" style="enable-background:new 0 0 95 85.8;" xml:space="preserve">
<style type="text/css">
	.st0{fill:#231F20;}
	.st1{opacity:0.65;}
</style>
<g>
	<path class="st0" d="M10.6,6.1H0V0.4h28.2v5.7H17.4v31.6h-6.8V6.1z"/>
	<path class="st0" d="M36,27.1l-3.2,10.6h-7L37.7,0.4h8.7l12.1,37.3h-7.3l-3.4-10.6H36z M46.6,22l-2.9-9.2c-0.7-2.3-1.3-4.8-1.9-7
		h-0.1c-0.6,2.2-1.1,4.8-1.8,7L37.1,22H46.6z"/>
	<path class="st0" d="M92.4,36c-2.4,0.9-7,2.1-12,2.1c-6.3,0-11.1-1.6-14.6-5c-3.3-3.2-5.3-8.1-5.2-13.7C60.6,7.6,69,0,81.3,0
		c4.6,0,8.2,0.9,9.9,1.8l-1.5,5.5c-2-0.9-4.5-1.6-8.5-1.6c-8,0-13.6,4.7-13.6,13.4c0,8.5,5.2,13.5,12.9,13.5c2.4,0,4.3-0.3,5.1-0.8
		v-9.3h-6.6v-5.4h13.2V36z"/>
</g>
<g class="st1">
	<path class="st0" d="M16.6,73.9c-0.1-3.6-0.2-8-0.2-11.8h-0.1c-0.6,3.4-1.3,7.2-2.1,10.8L11.5,85H9l-2.4-12
		c-0.7-3.6-1.3-7.4-1.8-10.9H4.7c-0.1,3.7-0.2,8.1-0.3,12L3.9,85.4H0.9l1.2-28h4.3l2.4,11.3c0.6,3.3,1.2,6.6,1.7,9.7h0.1
		c0.5-3,1.1-6.5,1.8-9.8l2.5-11.2h4.3l1,28h-3.2L16.6,73.9z"/>
	<path class="st0" d="M27,77.4l-1.6,7.9H22l5.8-28H32l5.9,28h-3.5l-1.6-7.9H27z M32.1,73.6l-1.4-6.9c-0.3-1.7-0.6-3.6-0.9-5.2h-0.1
		c-0.3,1.6-0.5,3.6-0.9,5.2l-1.4,6.9H32.1z"/>
	<path class="st0" d="M40.3,79.8c1.1,1,2.7,1.8,4.4,1.8c2.1,0,3.3-1.5,3.3-3.8c0-2.1-0.9-3.4-3.2-4.6c-3-1.7-4.9-4.1-4.9-8.1
		c0-4.6,2.5-8.1,6.4-8.1c2,0,3.4,0.7,4.3,1.4l-0.8,4.1c-0.6-0.5-1.9-1.3-3.6-1.3c-2.1,0-3,1.7-3,3.4c0,2.2,1,3.2,3.5,4.6
		c3.1,1.8,4.7,4.3,4.7,8.3c0,4.5-2.2,8.4-6.9,8.4c-1.9,0-3.9-0.9-4.9-1.8L40.3,79.8z"/>
	<path class="st0" d="M57.8,61.7h-5.2v-4.3h13.7v4.3h-5.2v23.7h-3.3V61.7z"/>
	<path class="st0" d="M78.5,73h-6.8v8.2h7.6v4.2H68.4v-28h10.5v4.2h-7.2v7.2h6.8V73z"/>
	<path class="st0" d="M82.2,57.8c1.2-0.3,3.1-0.6,5-0.6c2.6,0,4.4,0.7,5.6,2.2c1,1.3,1.6,3.2,1.6,5.6c0,3.6-1.6,6.1-3.3,7v0.1
		c1.3,0.7,2.1,2.7,2.5,5.4c0.6,3.5,1,6.7,1.4,7.8h-3.4c-0.3-0.8-0.7-3.1-1.2-6.6c-0.5-3.7-1.4-4.8-3.2-4.9h-1.7v11.5h-3.3V57.8z
		 M85.5,70.1h2c2.2,0,3.6-1.8,3.6-4.6c0-3.1-1.4-4.5-3.5-4.5c-1,0-1.7,0.1-2,0.2V70.1z"/>
</g>
</svg>
